INDEX VERSION 1.131+E:\eclipse-workspace\.metadata\.plugins\org.eclipse.jdt.core
1329501613.index
860208974.index
1071587540.index
2207309561.index
2143315025.index
431841504.index
1759534978.index
3705611006.index
63322037.index
3804817095.index
706916506.index
2217442250.index
1007340512.index
2500611144.index
333818428.index
1843698340.index
3709094081.index
3599717843.index
4047918315.index
1634749093.index
1536431533.index
4194743264.index
1259207542.index
570915288.index
192074650.index
3075497805.index
3285135714.index
3567867619.index
3996102163.index
615231966.index
2363488563.index
3881777827.index
3544065117.index
2306967889.index
3581447250.index
4289352713.index
2924275543.index
3091982824.index
600366729.index
1555089914.index
1719752391.index
3512098302.index
3172503023.index
