<?xml version="1.0" encoding="UTF-8"?>
<session version="1.0">
<refactoring comment="Delete resource &apos;Serlet&apos;" deleteContents="true" description="Delete resource &apos;Serlet&apos;" element1="/Serlet" flags="7" id="org.eclipse.ltk.core.refactoring.delete.resources" resources="1" stamp="1553767648718"/>
</session>